{

    "innovadata": [
        {
            "mainimage": "./images/crousal-full-1.jpg",
            "slideno": "0"
        },
        {
            "mainimage": "./images/crousal-full-5.jpg",
            "slideno": "1"
        },
        {
            "mainimage": "./images/crousal-full-6.jpg",
            "slideno": "2"
        },
        {
            "mainimage": "./images/crousal-full-7.jpg",
            "slideno": "3"
        },
        {
            "mainimage": "./images/crousal-full-8.jpg",
            "slideno": "4"
        }
    ],
    "innerdata": [

        {
            "innerimage": "./images/crousal-full-1.jpg",
            "slideto": "0",
            "id": "carousel-selector-0"
        },
        {
            "innerimage": "./images/crousal-full-5.jpg",
            "slideto": "1",
            "id": "carousel-selector-1"
        },
        {
            "innerimage": "./images/crousal-full-6.jpg",
            "slideto": "2",
            "id": "carousel-selector-2"
        },
        {
            "innerimage": "./images/crousal-full-7.jpg",
            "slideto": "3",
            "id": "carousel-selector-3"
        },
        {
            "innerimage": "./images/crousal-full-8.jpg",
            "slideto": "4",
            "id": "carousel-selector-4"
        }
    ],

    "cabname": [
        {
            "h2": "SWIFT"
        }
    ],

    "carrating": [
        {
            "h1": "97%",
            "p": "overflow-x guest recomended"
        },
        {
            "h1": "4.5/5",
            "p": "guest rating"
        }
    ],

    "cartabs": [
        {
            "list": "ABOUT"
        },
        {
            "list": "FAQ'S"
        },
        {
            "list": "AMENITIES"
        },
        {
            "list": "REVIEWS"
        }
    ],

    "tabcontent": [
        {
            "pera": "Lorem Ipsum is simply dummy text of the printing and typesetting industry. Lorem Ipsum has been the industry's standard dummy text ever since the 1500s, when an unknown printer took a galley of type and scrambled it to make a type specimen book. It has survived not only five centuries, but also the leap into electronic typesetting, remaining essentially unchanged. It was popularised in the 1960s with the release of Letraset sheets containing Lorem Ipsum passages, and more recently with desktop publishing software like Aldus PageMaker including versions of Lorem Ipsum."
        },
        {
            "pera": "Lorem Ipsum is simply dummy text of the printing and typesetting industry. Lorem Ipsum has been the industry's standard dummy text ever since the 1500s, when an unknown printer took a galley of type and scrambled it to make a type specimen book. It has survived not only five centuries, but also the leap into electronic typesetting, remaining essentially unchanged. It was popularised in the 1960s with the release of Letraset sheets containing Lorem Ipsum passages, and more recently with desktop"
        },
        {
            "pera": "Lorem Ipsum is simply dummy text of the printing and typesetting industry. Lorem Ipsum has been the industry's standard dummy text ever since the 1500s, when an unknown printer took a galley of type and scrambled it to make a type specimen book. It has survived not only five centuries, but also the leap into electronic typesetting, remaining essentially unchanged. It was popularised in the 1960s with the release of Letraset sheets containing Lorem Ipsum passages, and more recently with desktop publishing software like Aldus PageMaker including versions of Lorem Ipsum."
        },
        {
            "pera": "Lorem Ipsum is simply dummy text of the printing and typesetting industry. Lorem Ipsum has been the industry's standard dummy text ever since the 1500s, when an unknown printer took a galley of type and scrambled it to make a type specimen book. It has survived not only five centuries, but also the leap into electronic typesetting, remaining essentially unchanged. It was popularised in the 1960s with the release of Letraset sheets containing Lorem Ipsum passages, and more recently with desktop publishing"
        }
    ],

    "assistancedata":[
        {
            "assisimg": "./images/call.png",
            "span": "Need Assistance?",
            "p": "our team is 24/7 at your service to help you with your booking issues or answer anyn related questions",
            "tel": "1-234-567-8900",
            "phone": "tel:1-234-567-8900"
        }
    ],

    "morecabs": [
        {
            "locimg": "./images/location.png",
            "span": "You May Also Like"
        }
    ],

    "morecabtext": [
        {
            "morecabimg": "./images/cab-6.jpg",
            "h5": "Alto",
            "p":  "INR 2000",
            "url": "/aulto"
        },
        {
            "morecabimg": "./images/cab-7.jpg",
            "h5": "Wagon- R",
            "p":  "INR 200",
            "url": "/innova"
        },
        {
            "morecabimg": "./images/cab-4.jpg",
            "h5": "Swift-Desire",
            "p":  "INR 2000",
            "url": "/swift"
        },
        {
            "morecabimg": "./images/cab-3.jpg",
            "h5": "Ertiga",
            "p":  "INR 2000",
            "url": "/aulto"
        }
    ]
}